<svg width="50" height="50" xmlns="http://www.w3.org/2000/svg">
    <foreignObject width="50" height="50">
        <div xmlns="http://www.w3.org/1999/xhtml">
            <style>
                .button {
                    color: white;
                    background-color: #005187 !important;
                    border-color: #001E54 !important;
                    font-weight: 300;
                    font-size: 16px;
                    font-family: "Helvetica Neue Light", "Helvetica Neue", Helvetica, Arial, "Lucida Grande", sans-serif;
                    text-decoration: none;
                    text-align: center;
                    line-height: 40px;
                    height: 40px;
                    padding: 0 40px;
                    margin: 0;
                    display: inline-block;
                    appearance: none;
                    cursor: pointer;
                    border: none;
                    -webkit-box-sizing: border-box;
                    -moz-box-sizing: border-box;
                    box-sizing: border-box;
                    -webkit-transition-property: all;
                    transition-property: all;
                    -webkit-transition-duration: .3s;
                    transition-duration: .3s;
                }

                .button:visited {
                    color: white;
                }

                .button:hover,
                .button:focus {
                    opacity: 0.75;
                    text-decoration: none;
                    outline: none;
                }

                .button:active,
                .button.active,
                .button.is-active {
                    opacity: 0.8;
                    text-shadow: 0 1px 0 rgba(255, 255, 255, 0.3);
                    text-decoration: none;
                    /*background-color: rgba(0, 0, 0, 0.11);*/
                    color: #d4d4d4;
                    -webkit-transition-duration: 0s;
                    transition-duration: 0s;
                    -webkit-box-shadow: inset 0 1px 3px rgba(0, 0, 0, 0.2);
                    box-shadow: inset 0 1px 3px rgba(0, 0, 0, 0.2);
                }

                .button:active>svg {
                    fill: #d4d4d4;
                    -webkit-transition-duration: 0s;
                    transition-duration: 0s;
                }

                .button-square {
                    border-radius: 0;
                }

                .button-circle,
                .button-box,
                .button-square {
                    padding: 0 !important;
                    width: 40px;
                }

                .button-square.button-large {
                    width: 50px;
                }

                .button-large {
                    font-size: 20px;
                    height: 50px;
                    line-height: 50px;
                    padding: 0 50px;
                }

                .button-border,
                .button-border-thin,
                .button-border-thick {
                    background: none;
                    border-width: 2px;
                    border-style: solid;
                    line-height: 36px;
                }

                .button>svg {
                    padding-left: 5.5px;
                    width: 35px;
                    height: 35px;
                    float: left;
                    fill: white;
                    -webkit-transition-property: all;
                    transition-property: all;
                    -webkit-transition-duration: .3s;
                    transition-duration: .3s;
                }
            </style>
            <button class="button button-large button-border button-square"><svg xmlns="http://www.w3.org/2000/svg"
                    viewBox="0 0 384 512">
                    <path
                        d="M384 144c0-44.2-35.8-80-80-80s-80 35.8-80 80c0 36.4 24.3 67.1 57.5 76.8-.6 16.1-4.2 28.5-11 36.9-15.4 19.2-49.3 22.4-85.2 25.7-28.2 2.6-57.4 5.4-81.3 16.9v-144c32.5-10.2 56-40.5 56-76.3 0-44.2-35.8-80-80-80S0 35.8 0 80c0 35.8 23.5 66.1 56 76.3v199.3C23.5 365.9 0 396.2 0 432c0 44.2 35.8 80 80 80s80-35.8 80-80c0-34-21.2-63.1-51.2-74.6 3.1-5.2 7.8-9.8 14.9-13.4 16.2-8.2 40.4-10.4 66.1-12.8 42.2-3.9 90-8.4 118.2-43.4 14-17.4 21.1-39.8 21.6-67.9 31.6-10.8 54.4-40.7 54.4-75.9zM80 64c8.8 0 16 7.2 16 16s-7.2 16-16 16-16-7.2-16-16 7.2-16 16-16zm0 384c-8.8 0-16-7.2-16-16s7.2-16 16-16 16 7.2 16 16-7.2 16-16 16zm224-320c8.8 0 16 7.2 16 16s-7.2 16-16 16-16-7.2-16-16 7.2-16 16-16z" />
                </svg></button>
        </div>
    </foreignObject>
</svg>